<?xml version="1.0" encoding="UTF-8"?>
<svg id="Layer_2" data-name="Layer 2" xmlns="http://www.w3.org/2000/svg" viewBox="0 0 39.33 19.47">
  <defs>
    <style>
      .cls-1 {
        fill: #272525;
        stroke-width: 0px;
      }
    </style>
  </defs>
  <g id="Layer_1-2" data-name="Layer 1">
    <path class="cls-1" d="M29.66,0c-4.27,0-8.43,5.83-10,8.29C18.09,5.82,13.94,0,9.67,0,4.34,0,0,4.37,0,9.74s4.34,9.74,9.67,9.74c4.27,0,8.43-5.83,10-8.29,1.57,2.47,5.73,8.29,10,8.29,5.33,0,9.67-4.37,9.67-9.74S34.99,0,29.66,0ZM9.67,17.97c-4.5,0-8.17-3.7-8.17-8.24S5.16,1.5,9.67,1.5c3.5,0,7.58,5.63,9.13,8.24-1.55,2.61-5.62,8.24-9.13,8.24ZM29.66,17.97c-3.5,0-7.58-5.63-9.13-8.24,1.55-2.6,5.63-8.24,9.13-8.24,4.5,0,8.17,3.69,8.17,8.24s-3.66,8.24-8.17,8.24Z"/>
  </g>
</svg>