<?xml version="1.0" encoding="UTF-8"?>
<svg xmlns="http://www.w3.org/2000/svg" xmlns:xlink="http://www.w3.org/1999/xlink" viewBox="0 0 392 785">
  <defs>
    <style>
      .cls-1 {
        fill: #fefefe;
      }

      .cls-1, .cls-2, .cls-3, .cls-4, .cls-5, .cls-6, .cls-7, .cls-8, .cls-9, .cls-10, .cls-11, .cls-12, .cls-13, .cls-14, .cls-15, .cls-16, .cls-17, .cls-18, .cls-19, .cls-20, .cls-21, .cls-22, .cls-23, .cls-24, .cls-25, .cls-26, .cls-27, .cls-28, .cls-29, .cls-30, .cls-31, .cls-32, .cls-33, .cls-34, .cls-35, .cls-36, .cls-37, .cls-38, .cls-39, .cls-40, .cls-41, .cls-42, .cls-43, .cls-44, .cls-45, .cls-46, .cls-47, .cls-48, .cls-49, .cls-50, .cls-51, .cls-52, .cls-53, .cls-54, .cls-55, .cls-56, .cls-57, .cls-58, .cls-59 {
        stroke-width: 0px;
      }

      .cls-2 {
        fill: url(#linear-gradient-12);
      }

      .cls-3 {
        fill: url(#linear-gradient-17);
      }

      .cls-4 {
        fill: #dcdcdc;
      }

      .cls-5 {
        fill: #fefffe;
      }

      .cls-60 {
        opacity: .7;
      }

      .cls-60, .cls-45, .cls-61 {
        mix-blend-mode: screen;
      }

      .cls-6 {
        fill: url(#linear-gradient);
      }

      .cls-7 {
        fill: #d0d2d3;
      }

      .cls-8 {
        fill: #f8e1b9;
      }

      .cls-9 {
        fill: #ffb64f;
      }

      .cls-10 {
        fill: url(#linear-gradient-6);
      }

      .cls-11 {
        fill: #fbecce;
      }

      .cls-12 {
        fill: #201602;
      }

      .cls-13 {
        fill: #231704;
      }

      .cls-62 {
        isolation: isolate;
      }

      .cls-14 {
        fill: #211502;
      }

      .cls-15 {
        fill: #f9b74c;
      }

      .cls-17 {
        fill: #e3e3e3;
      }

      .cls-18 {
        fill: url(#linear-gradient-15);
      }

      .cls-19 {
        fill: url(#radial-gradient);
        mix-blend-mode: multiply;
      }

      .cls-20 {
        fill: url(#linear-gradient-11);
      }

      .cls-21 {
        fill: url(#linear-gradient-5);
      }

      .cls-22 {
        fill: #fffefe;
      }

      .cls-23, .cls-63, .cls-64, .cls-65, .cls-66, .cls-67, .cls-68, .cls-69 {
        fill: none;
      }

      .cls-63 {
        stroke: #61cce5;
        stroke-width: 4.55px;
      }

      .cls-63, .cls-64, .cls-65, .cls-66, .cls-67, .cls-68 {
        stroke-miterlimit: 10;
      }

      .cls-63, .cls-64, .cls-67, .cls-68, .cls-69 {
        stroke-linecap: round;
      }

      .cls-24 {
        fill: #f9ba5c;
      }

      .cls-25 {
        fill: #ddd;
      }

      .cls-26 {
        fill: #201503;
      }

      .cls-70 {
        clip-path: url(#clippath-1);
      }

      .cls-27 {
        fill: #f9b64d;
      }

      .cls-28 {
        fill: #f8bc5a;
      }

      .cls-29 {
        fill: #0099c7;
      }

      .cls-30 {
        fill: #f9b959;
      }

      .cls-31 {
        fill: url(#linear-gradient-13);
      }

      .cls-32 {
        fill: #211603;
      }

      .cls-33 {
        fill: url(#linear-gradient-16);
      }

      .cls-64 {
        stroke: #d0d2d3;
      }

      .cls-64, .cls-65 {
        stroke-width: .5px;
      }

      .cls-34 {
        fill: #fff;
      }

      .cls-65, .cls-68 {
        stroke: #fff;
      }

      .cls-35 {
        fill: #f9f6ea;
      }

      .cls-36 {
        fill: #217fbd;
      }

      .cls-37 {
        fill: url(#linear-gradient-14);
      }

      .cls-38 {
        fill: #fdfefd;
      }

      .cls-39 {
        fill: url(#linear-gradient-2);
      }

      .cls-40 {
        fill: url(#linear-gradient-7);
      }

      .cls-41 {
        fill: url(#linear-gradient-3);
      }

      .cls-42 {
        fill: #211602;
      }

      .cls-71 {
        clip-path: url(#clippath);
      }

      .cls-43 {
        fill: #221809;
      }

      .cls-44 {
        fill: url(#linear-gradient-9);
      }

      .cls-66 {
        stroke: #140f33;
        stroke-width: .3px;
      }

      .cls-45 {
        fill: url(#radial-gradient-2);
      }

      .cls-46 {
        fill: #feb549;
      }

      .cls-47 {
        fill: #f8bb5f;
      }

      .cls-48 {
        fill: url(#linear-gradient-8);
      }

      .cls-67, .cls-68 {
        stroke-width: .75px;
      }

      .cls-67, .cls-69 {
        stroke: #4a4a4a;
      }

      .cls-49 {
        fill: url(#linear-gradient-10);
      }

      .cls-69 {
        stroke-linejoin: round;
      }

      .cls-50 {
        fill: url(#linear-gradient-4);
      }

      .cls-51 {
        fill: #fdb64e;
      }

      .cls-61 {
        opacity: .5;
      }

      .cls-52 {
        fill: #fffffe;
      }

      .cls-53 {
        fill: #aaa;
      }

      .cls-54 {
        fill: #231605;
      }

      .cls-55 {
        fill: #343450;
      }

      .cls-56 {
        fill: #201504;
      }

      .cls-57 {
        fill: #1f1602;
      }

      .cls-58 {
        fill: #201502;
      }

      .cls-59 {
        fill: #272945;
      }
    </style>
    <clipPath id="clippath">
      <rect class="cls-23" x="19" y="12.5" width="355" height="760" rx="46.89" ry="46.89"/>
    </clipPath>
    <linearGradient id="linear-gradient" x1="19" y1="499.2" x2="374" y2="499.2" gradientUnits="userSpaceOnUse">
      <stop offset="0" stop-color="#171a3a"/>
      <stop offset="1" stop-color="#02162a"/>
    </linearGradient>
    <linearGradient id="linear-gradient-2" x1="196.5" y1="779.84" x2="196.5" y2="517.57" gradientTransform="translate(0 787) scale(1 -1)" gradientUnits="userSpaceOnUse">
      <stop offset="0" stop-color="#1ec4ce"/>
      <stop offset="1" stop-color="#5280e6"/>
    </linearGradient>
    <linearGradient id="linear-gradient-3" x1="196.47" y1="236.37" x2="196.47" y2="315.25" gradientTransform="translate(465.33 72.16) rotate(89.83)" gradientUnits="userSpaceOnUse">
      <stop offset="0" stop-color="#e47a7d"/>
      <stop offset="1" stop-color="#d01c20"/>
    </linearGradient>
    <clipPath id="clippath-1">
      <rect class="cls-23" x="198.4" y="83.37" width="156.01" height="95.19" rx="11.4" ry="11.4"/>
    </clipPath>
    <linearGradient id="linear-gradient-4" x1="-2033.82" y1="-1015.72" x2="-1950.86" y2="-1015.72" gradientTransform="translate(-632.77 2200.8) rotate(90)" gradientUnits="userSpaceOnUse">
      <stop offset="0" stop-color="#d9d9d9"/>
      <stop offset=".02" stop-color="#fafafa"/>
      <stop offset=".04" stop-color="#d8d8d8"/>
      <stop offset=".08" stop-color="#ababab"/>
      <stop offset=".11" stop-color="#e1e1e1"/>
      <stop offset=".9" stop-color="#d7d7d7"/>
      <stop offset=".94" stop-color="#ababab"/>
      <stop offset=".96" stop-color="#d8d8d8"/>
      <stop offset=".98" stop-color="#f5f5f5"/>
      <stop offset="1" stop-color="#d6d6d6"/>
    </linearGradient>
    <linearGradient id="linear-gradient-5" x1="-2033.8" y1="-1016.62" x2="-1950.86" y2="-1016.62" gradientTransform="translate(-632.77 2200.8) rotate(90)" gradientUnits="userSpaceOnUse">
      <stop offset="0" stop-color="#ededed"/>
      <stop offset=".06" stop-color="#d8d8d8"/>
      <stop offset=".19" stop-color="#e8e8e8"/>
      <stop offset=".81" stop-color="#e8e8e8"/>
      <stop offset=".92" stop-color="#d8d8d8"/>
      <stop offset="1" stop-color="#ededed"/>
    </linearGradient>
    <linearGradient id="linear-gradient-6" y1="2507.64" x2="-1978.06" y2="2507.64" gradientTransform="translate(-2498.6 2200.8) rotate(90) scale(1 -1)" xlink:href="#linear-gradient-4"/>
    <linearGradient id="linear-gradient-7" y1="2506.75" x2="-1978.06" y2="2506.75" gradientTransform="translate(-2498.6 2200.8) rotate(90) scale(1 -1)" xlink:href="#linear-gradient-5"/>
    <linearGradient id="linear-gradient-8" x1="10.28" y1="222.76" x2="10.28" y2="167" gradientUnits="userSpaceOnUse">
      <stop offset="0" stop-color="#d9d9d9"/>
      <stop offset=".05" stop-color="#ababab"/>
      <stop offset=".52" stop-color="#d8d8d8"/>
      <stop offset=".96" stop-color="#ababab"/>
      <stop offset="1" stop-color="#d6d6d6"/>
    </linearGradient>
    <linearGradient id="linear-gradient-9" x1="-1963.91" y1="2507.64" x2="-1908.15" y2="2507.64" gradientTransform="translate(-2498.6 2200.8) rotate(90) scale(1 -1)" xlink:href="#linear-gradient-4"/>
    <linearGradient id="linear-gradient-10" x1="-1963.89" y1="2506.75" x2="-1908.14" y2="2506.75" gradientTransform="translate(-2498.6 2200.8) rotate(90) scale(1 -1)" xlink:href="#linear-gradient-5"/>
    <linearGradient id="linear-gradient-11" x1="10.28" y1="292.67" x2="10.28" y2="236.91" gradientUnits="userSpaceOnUse">
      <stop offset="0" stop-color="#d9d9d9"/>
      <stop offset=".05" stop-color="#ababab"/>
      <stop offset=".52" stop-color="#d8d8d8"/>
      <stop offset=".96" stop-color="#ababab"/>
      <stop offset="1" stop-color="#d6d6d6"/>
    </linearGradient>
    <linearGradient id="linear-gradient-12" x1="-2099.84" y1="2507.64" x2="-2069.58" y2="2507.64" gradientTransform="translate(-2498.6 2200.8) rotate(90) scale(1 -1)" xlink:href="#linear-gradient-4"/>
    <linearGradient id="linear-gradient-13" x1="-2099.82" y1="2506.75" x2="-2069.57" y2="2506.75" gradientTransform="translate(-2498.6 2200.8) rotate(90) scale(1 -1)" xlink:href="#linear-gradient-5"/>
    <linearGradient id="linear-gradient-14" x1="10.28" y1="131.24" x2="10.28" y2="100.98" gradientUnits="userSpaceOnUse">
      <stop offset="0" stop-color="#d9d9d9"/>
      <stop offset=".05" stop-color="#ababab"/>
      <stop offset=".52" stop-color="#d8d8d8"/>
      <stop offset=".96" stop-color="#ababab"/>
      <stop offset="1" stop-color="#d6d6d6"/>
    </linearGradient>
    <linearGradient id="linear-gradient-15" x1="225.68" y1="39.71" x2="225.68" y2="27.99" gradientTransform="translate(259.43 -191.61) rotate(89.9)" gradientUnits="userSpaceOnUse">
      <stop offset="0" stop-color="#666"/>
      <stop offset="1" stop-color="#010104"/>
    </linearGradient>
    <linearGradient id="linear-gradient-16" x1="-2877.42" y1="-19.13" x2="-2877.42" y2="-25.82" gradientTransform="translate(-2651.74 11.81) rotate(-180)" gradientUnits="userSpaceOnUse">
      <stop offset="0" stop-color="#0b131c"/>
      <stop offset="1" stop-color="#354039"/>
    </linearGradient>
    <linearGradient id="linear-gradient-17" x1="227.78" y1="36.24" x2="223.57" y2="32.03" gradientUnits="userSpaceOnUse">
      <stop offset="0" stop-color="#231f20"/>
      <stop offset=".08" stop-color="#212226"/>
      <stop offset=".2" stop-color="#1f2c37"/>
      <stop offset=".33" stop-color="#1a3c53"/>
      <stop offset=".47" stop-color="#13537b"/>
      <stop offset=".62" stop-color="#0a70ae"/>
      <stop offset=".78" stop-color="#0093eb"/>
      <stop offset=".78" stop-color="#0095ee"/>
      <stop offset=".8" stop-color="#0387d6"/>
      <stop offset=".84" stop-color="#0d689f"/>
      <stop offset=".88" stop-color="#154d71"/>
      <stop offset=".91" stop-color="#1b394e"/>
      <stop offset=".95" stop-color="#1f2a34"/>
      <stop offset=".98" stop-color="#222225"/>
      <stop offset="1" stop-color="#231f20"/>
    </linearGradient>
    <radialGradient id="radial-gradient" cx="225.68" cy="34.13" fx="225.68" fy="34.13" r="2.98" gradientUnits="userSpaceOnUse">
      <stop offset="0" stop-color="#231f20"/>
      <stop offset=".2" stop-color="#165068"/>
      <stop offset=".38" stop-color="#0c78a1"/>
      <stop offset=".54" stop-color="#0594cb"/>
      <stop offset=".66" stop-color="#01a6e4"/>
      <stop offset=".73" stop-color="#00adee"/>
      <stop offset=".76" stop-color="#01a5e3"/>
      <stop offset=".81" stop-color="#0693c8"/>
      <stop offset=".87" stop-color="#0d749b"/>
      <stop offset=".94" stop-color="#184a5e"/>
      <stop offset="1" stop-color="#231f20"/>
    </radialGradient>
    <radialGradient id="radial-gradient-2" cx="227.32" cy="35.68" fx="227.32" fy="35.68" r="1.06" gradientUnits="userSpaceOnUse">
      <stop offset="0" stop-color="#ccc"/>
      <stop offset=".02" stop-color="#c4c4c4"/>
      <stop offset=".22" stop-color="#898989"/>
      <stop offset=".41" stop-color="#585858"/>
      <stop offset=".59" stop-color="#313131"/>
      <stop offset=".75" stop-color="#161616"/>
      <stop offset=".89" stop-color="#050505"/>
      <stop offset="1" stop-color="#000"/>
    </radialGradient>
  </defs>
  <g class="cls-62">
    <g id="Layer_1" data-name="Layer 1">
      <g class="cls-71">
        <g>
          <g id="Layer_1-2" data-name="Layer 1">
            <g>
              <rect class="cls-7" x="53.44" y="332.54" width="134.56" height="19.48" rx="9.73" ry="9.73"/>
              <path class="cls-6" d="m19,219.56h355v559.27H19V219.56Z"/>
              <path class="cls-39" d="m19,7.16h355v262.26H19V7.16Z"/>
              <path class="cls-59" d="m43.31,744.66h304.5c4.78,0,8.65,3.87,8.65,8.65v11.14c0,4.78-3.87,8.65-8.65,8.65H43.31c-4.78,0-8.65-3.87-8.65-8.65v-11.14c0-4.78,3.87-8.65,8.65-8.65Z"/>
              <rect class="cls-59" x="34.66" y="452" width="321.8" height="273.53" rx="15.56" ry="15.56"/>
              <rect class="cls-59" x="34.76" y="369.83" width="322.02" height="66.61" rx="9.81" ry="9.81"/>
              <rect class="cls-41" x="163.87" y="107.18" width="65.2" height="324.52" rx="5.29" ry="5.29" transform="translate(-73.55 465.11) rotate(-89.83)"/>
              <path class="cls-34" d="m55.36,249.65h279.4c3.08,0,5.58,2.5,5.58,5.58h0c0,3.08-2.5,5.58-5.58,5.58H55.36c-3.08,0-5.58-2.5-5.58-5.58h0c0-3.08,2.5-5.58,5.58-5.58Z"/>
              <path class="cls-34" d="m55.36,266.24h269.58c3.08,0,5.58,2.5,5.58,5.58h0c0,3.08-2.5,5.58-5.58,5.58H55.36c-3.08,0-5.58-2.5-5.58-5.58h0c0-3.08,2.5-5.58,5.58-5.58Z"/>
              <path class="cls-34" d="m55.36,282.83h25.98c3.08,0,5.58,2.5,5.58,5.58h0c0,3.08-2.5,5.58-5.58,5.58h-25.98c-3.08,0-5.58-2.5-5.58-5.58h0c0-3.08,2.5-5.58,5.58-5.58Z"/>
              <rect class="cls-65" x="116.53" y="196.66" width="159.86" height="22.9" rx="3.91" ry="3.91"/>
              <path class="cls-34" d="m165.57,205.51h60.32c1.68,0,3.05,1.36,3.05,3.05h0c0,1.68-1.36,3.05-3.05,3.05h-60.32c-1.68,0-3.05-1.36-3.05-3.05h0c0-1.68,1.36-3.05,3.05-3.05Z"/>
              <rect class="cls-34" x="39.42" y="91.8" width="68.54" height="11.16" rx="2.71" ry="2.71"/>
              <rect class="cls-34" x="39.42" y="141.23" width="50.46" height="11.16" rx="2.32" ry="2.32"/>
              <rect class="cls-34" x="39.42" y="158.57" width="36.13" height="11.16" rx="1.97" ry="1.97"/>
              <rect class="cls-34" x="39.42" y="109.88" width="127.94" height="11.16" rx="3.7" ry="3.7"/>
              <rect class="cls-65" x="113.7" y="92.29" width="6.37" height="7.74" rx=".59" ry=".59"/>
              <rect class="cls-65" x="117.63" y="95.2" width="6.37" height="7.74" rx=".59" ry=".59"/>
              <path class="cls-68" d="m38.6,74.33l-6.47-6.47,6.47-6.45"/>
              <path class="cls-67" d="m334.08,409.81l4.68-4.66-4.68-4.68"/>
              <circle class="cls-34" cx="330.62" cy="67.07" r="2.22"/>
              <circle class="cls-34" cx="338.23" cy="67.07" r="2.22"/>
              <circle class="cls-34" cx="345.5" cy="67.07" r="2.22"/>
              <rect class="cls-55" x="36.22" y="337.73" width="142.72" height="12.5" rx="6.25" ry="6.25"/>
              <rect class="cls-55" x="79.01" y="400.35" width="157.46" height="12.5" rx="6.25" ry="6.25"/>
              <rect class="cls-55" x="47.46" y="467.85" width="57.91" height="12.5" rx="6.25" ry="6.25"/>
              <rect class="cls-55" x="201.97" y="506.71" width="52.36" height="10.02" rx="5.01" ry="5.01"/>
              <rect class="cls-55" x="201.97" y="524.56" width="28.25" height="10.02" rx="3.68" ry="3.68"/>
              <rect class="cls-55" x="201.97" y="563.16" width="52.36" height="10.02" rx="5.01" ry="5.01"/>
              <rect class="cls-55" x="201.97" y="581.01" width="28.25" height="10.02" rx="3.68" ry="3.68"/>
              <path class="cls-64" d="m62.67,398.21v8.85m2.89-2.42l-2.89,2.89-2.89-2.89"/>
              <path class="cls-64" d="m64.99,401.75h2.89v9.69h-10.46v-9.69h3.03"/>
              <path class="cls-69" d="m323.7,469.78h8.57m-8.57,8.85h4.28m-4.28-4.42h11.24"/>
              <path class="cls-55" d="m55.05,634.79h137.64c3.09,0,5.6,2.5,5.6,5.59h0c0,3.09-2.51,5.59-5.6,5.59H55.05c-3.09,0-5.6-2.5-5.6-5.59h0c0-3.09,2.51-5.59,5.6-5.59Z"/>
              <path class="cls-55" d="m78.81,577.79h73.59c3.09,0,5.6,2.5,5.6,5.59h0c0,3.09-2.51,5.59-5.6,5.59h-73.59c-3.09,0-5.6-2.5-5.6-5.59h0c0-3.09,2.51-5.59,5.6-5.59Z"/>
              <path class="cls-55" d="m105.03,556.89h21.17c3.09,0,5.6,2.5,5.6,5.59h0c0,3.09-2.51,5.59-5.6,5.59h-21.17c-3.09,0-5.6-2.5-5.6-5.59h0c0-3.09,2.51-5.59,5.6-5.59Z"/>
              <path class="cls-55" d="m245.17,625.36h86.16c2.22,0,4.01,2.72,4.01,6.07v13.79c0,3.35-1.8,6.07-4.01,6.07h-86.16c-2.22,0-4.01-2.72-4.01-6.07v-13.79c0-3.35,1.8-6.07,4.01-6.07Z"/>
              <path class="cls-59" d="m253.26,632.95h69.99c1.96,0,3.55,2.4,3.55,5.37h0c0,2.97-1.59,5.37-3.55,5.37h-69.99c-1.96,0-3.55-2.4-3.55-5.37h0c0-2.97,1.59-5.37,3.55-5.37Z"/>
              <path class="cls-63" d="m65.15,569.14c0-28.95,23.47-52.4,52.4-52.4s52.4,23.47,52.4,52.4"/>
              <g class="cls-70">
                <g>
                  <path class="cls-22" d="m322.27,106.37c-.04-.16-.18-.28-.37-.29h-.55c-.24,0-.41.2-.41.43v2.3s0,.04.04.04h.22v-2c0-.28.22-.49.49-.49h.57l.02.02Z"/>
                  <rect class="cls-29" x="318.65" y="110.65" width="16.08" height="16.08" rx="1.28" ry="1.28"/>
                  <path class="cls-9" d="m322.44,127.3v.31q0,.08.08.08h.12s.04,0,.04.04v2.38c0,.18-.08.31-.22.41-.08.06-.16.08-.26.08h-.53c-.18,0-.33-.08-.41-.26.04-.04.08-.04.12-.04h.51c.2,0,.33-.1.45-.26,0-.02.02-.04.04-.06v-.04h-.06s-.02.04-.04.04c-.1.16-.24.24-.41.24h-.51c-.06,0-.14,0-.16-.08v-2.34c0-.14.04-.16.16-.16h.77c.12,0,.16,0,.16-.12,0-.02,0-.06.02-.08.04,0,.04.04.06.06v1.95s0,.14.02.14c.06,0,.04-.08.04-.14v-1.97c0-.06,0-.12.04-.16l-.02-.04Zm4.4.39h.2c.06,0,.06.02.06.06v2.32c0,.16-.04.31-.16.41-.1.08-.2.14-.31.14h-.55c-.18,0-.31-.1-.39-.26.04-.04.08-.04.12-.04h.51c.2,0,.33-.1.45-.26,0,0,.02-.04.02-.06v-.06h-.06s-.04.04-.04.08c-.08.12-.2.2-.33.2h-.59c-.06,0-.14,0-.16-.08v-2.32c0-.16.04-.18.18-.18h.83s.08,0,.12.02c.04.06.04.12.04.18v1.67s0,.06.04.06.04-.04.04-.06v-1.67c0-.06,0-.12.04-.16h-.04Zm11.32-5.5c.18.08.29.22.29.43v.53c0,.26-.2.49-.51.49h-2.3q-.12,0-.12-.12c0-.14,0-.12-.12-.14h-.28c.04-.06.1-.04.16-.04h2.04s.04,0,.04-.04c0-.02,0-.04-.04-.04h-1.67c-.12,0-.22.02-.33,0-.04,0-.1,0-.1-.06.04-.04.08-.04.14-.04.1,0,.12,0,.12-.12v-.83c0-.12.04-.16.16-.16h2.3c.06,0,.08.06.1.1.02.1,0,.18,0,.28v.29c0,.18-.08.31-.24.41h-.04s-.04.06-.02.1c0,.04.04.02.06,0,.08-.04.14-.08.18-.14.1-.12.14-.26.14-.39v-.51s0-.06.02-.08l.02.06Zm0-6.6c.18.08.28.22.29.41v.59c0,.24-.24.43-.49.45h-2.34q-.08,0-.08-.08v-.18c.04-.06.1-.04.16-.04h1.65s.04,0,.04-.04c0-.02-.02-.04-.04-.04h-1.67c-.06,0-.12,0-.16-.04-.02-.04-.02-.08-.02-.12v-.83c0-.16.04-.2.2-.2h2.28c.06,0,.1.08.1.12.02.22.04.45,0,.67-.02.14-.1.24-.22.31,0,0-.04.02-.06.04v.06h.04s.08-.04.12-.06c.16-.12.22-.28.22-.47v-.49s0-.06.02-.08h-.04Zm.1,2.24c.14.12.22.26.22.45v.45c0,.28-.24.51-.49.51h-2.34c-.08,0-.1,0-.1-.08v-.16s.1-.04.16-.04h1.67s.04,0,.04-.04c0-.02,0-.04-.04-.04h-1.67c-.06,0-.12,0-.16-.04-.02-.04-.02-.08-.02-.12v-.86c0-.14.04-.16.16-.18h2.3s.06.04.08.08c.02.06.04.12.04.18v.41c0,.2-.08.35-.26.43h-.02s-.04.06-.02.08c0,.02.04,0,.06,0,.16-.08.26-.2.29-.37.04-.22.02-.41,0-.63v-.12h.04s.04.02.06.04v.04Zm-7.02,9.87h.2s.06,0,.06.06v2.36c0,.33-.28.55-.53.53h-.47c-.18,0-.35-.09-.43-.26.04-.04.08-.04.12-.04h.51c.22,0,.35-.12.45-.29,0-.02.04-.06,0-.08s-.06,0-.08.04c-.1.18-.26.26-.45.26h-.49c-.06,0-.14,0-.16-.08v-2.34c0-.14.04-.16.16-.16h.77c.1,0,.16,0,.16-.12,0-.02,0-.06.02-.08.04,0,.04.04.06.06v1.95s-.02.12.04.14c.08,0,.04-.08.04-.14v-1.59c0-.06,0-.12.04-.16v-.06Zm-2.2,0h.2q.06,0,.06.06v2.32c0,.12-.02.24-.1.33-.1.14-.22.2-.37.2h-.53c-.18,0-.33-.08-.41-.26.04-.04.08-.04.12-.04h.51c.2,0,.35-.1.45-.28,0-.02.04-.06,0-.1-.04-.02-.06,0-.08.04-.1.18-.26.26-.45.24h-.49c-.06,0-.14,0-.16-.08v-2.34c0-.14.04-.16.16-.16h.86s.08,0,.12.02c.04.06.04.12.04.18v1.71s0,.04.04.04c.02,0,.04,0,.04-.04v-1.71c0-.06,0-.12.04-.16l-.04.02Zm-4.4-.02h.18q.06,0,.06.08v2.34c0,.22-.1.37-.28.47-.08.04-.14.06-.22.06h-.51c-.18,0-.35-.09-.43-.26.04-.04.08-.04.12-.04h.51c.2,0,.35-.12.45-.29,0-.02.04-.06,0-.08s-.06,0-.08.04c-.1.18-.26.26-.45.24h-.49c-.06,0-.14,0-.16-.08v-2.36c0-.14.02-.16.16-.16h.85s.08,0,.12.02c.04.04.04.1.04.16v1.69s0,.06.04.06.04-.04.04-.06v-1.69c0-.06,0-.12.04-.16l.02.02Zm13.52-14.29c.18.08.28.22.29.41v.59c0,.24-.22.43-.47.45h-2.38s-.08,0-.06-.06v-.12s0-.06-.06-.06h-.37c.04-.06.12-.04.16-.04h2.08s.04,0,.02-.04l-.02-.02h-1.95c-.06,0-.12,0-.16-.04.02-.06.08-.04.12-.04s.1,0,.14-.02c.02-.04.02-.06.02-.1v-.85c0-.06.02-.1.08-.1h2.36c.06,0,.06.04.08.08.02.06.02.12.02.18v.39c0,.2-.08.33-.24.45h-.04s-.04.06-.02.08c0,.04.04.02.06,0,.08-.04.16-.1.22-.18.08-.12.12-.24.1-.37v-.49s0-.06.02-.08v-.04Zm-21.23-.06h.18q.1,0,.1.1v1.32c0,.08,0,.1-.08.1h-2.34c-.2,0-.35-.1-.45-.28,0,0,0-.04-.04-.04-.04-.04,0-.1-.04-.16v-.59c0-.26.26-.47.51-.47h1.87s.1,0,.14.04c.02.04.02.08.02.12v.85c0,.14-.02.18-.18.18h-1.87s-.12,0-.12.02c0,.06.08.04.12.04h1.97q.16,0,.16-.16v-.9c0-.06,0-.1.04-.16h.02Zm0,4.4h.22s.06,0,.06.06v1.4s0,.06-.06.06h-2.3c-.12,0-.24-.02-.33-.08h-.02s-.06-.04-.08-.08l-.06-.12h-.04c-.02-.06-.02-.12-.04-.16v-.53c0-.29.22-.53.51-.53h1.85c.06,0,.12,0,.16.04.02.04.02.08.02.12v.85c0,.14-.02.18-.18.18h-1.97s-.04,0-.04.04c0,.02.02.02.04.04h2.14s.08-.02.08-.08v-1s0-.1.04-.14v-.06Zm-2.36-.75c-.09-.04-.18-.11-.24-.2,0-.02,0-.06-.06-.06-.04-.04,0-.1-.04-.14v-.61c0-.24.18-.41.41-.45.08,0,.16-.02.24-.02h1.73c.06,0,.1,0,.16.04.02.04.02.08.02.12v.85c0,.14-.02.18-.18.18h-1.85s-.14-.04-.14.04c0,.06.08.04.14.04h2c.08,0,.1-.02.1-.1v-.98s0-.08.04-.12h.2c.06,0,.08,0,.08.08v1.4s-.06.02-.1.02h-2.28c-.08,0-.18,0-.26-.04l.02-.04Zm2.36,5.15h.22s.06,0,.06.06v1.34q0,.1-.1.1h-2.32c-.2,0-.35-.1-.45-.28,0,0,0-.04-.04-.04-.04-.04,0-.1-.04-.14v-.63c0-.2.12-.33.29-.39.1-.02.2-.04.29-.04h1.75q.16,0,.16.16v.79q0,.14-.14.14h-1.87s-.1,0-.14.02c-.02.04,0,.06.02.08h2.08c.1,0,.12,0,.12-.12v-.96s0-.1.04-.14l.06.06Zm21.23-2.16c.18.08.28.22.29.41v.59c0,.2-.12.33-.31.41h-.22s-.08-.02-.14-.02h-2.24c-.06-.12-.02-.18.1-.18h1.59s.1,0,.14-.04c.02-.04,0-.06-.04-.08h-1.69c-.06,0-.12,0-.16-.04v-.96c0-.14.04-.18.18-.18h2.28s.06.04.08.08c.02.06.02.12.02.18v.43c0,.18-.08.33-.24.43s-.06.04-.04.08.06,0,.1,0c.1-.04.16-.12.22-.2.06-.1.08-.22.08-.33v-.49s0-.06.02-.08l-.02-.02Zm-21.23-.04h.14c.09,0,.14.05.14.16v1.12c0,.09-.05.14-.14.14h-2.12,2.24v.02s-.06,0-.08,0h-2.46c-.14-.04-.22-.12-.29-.24,0,0,0-.04-.04-.04-.04-.04-.04-.1-.04-.16v-.55c0-.29.22-.51.51-.51h1.85c.06,0,.12,0,.16.04.02.04.02.08.02.12v.85c0,.14-.02.18-.18.18h-1.91c-.06,0-.1.02-.1.08,0,.04.04.02.06.02h2.12s.06,0,.08-.02v-1.08c0-.06,0-.1.04-.14v.02Zm4.25-11.07v-1.99c-.02-.28.19-.51.47-.53,0,0,.02,0,.02,0h.57s.06.04.06.08c0,.06.02.14.02.2v2.16c0,.1-.04.14-.14.14h-.9s-.08,0-.1-.04v-.02Z"/>
                  <path class="cls-13" d="m318.06,118.43v4.58c0,.1-.04.14-.12.1,0,0-.02,0-.02-.04v-9.24q0-.08.08-.08s.06,0,.06.06v4.64-.02Z"/>
                  <path class="cls-32" d="m333.98,110.81s.02.04,0,.06-.06.04-.1.04c-.02,0-.04-.02-.04-.04-.04-.06-.06-.12-.12-.18-.06-.05-.11-.11-.14-.18,0,0-.06-.06-.1-.08-.18-.15-.4-.24-.63-.26h-7.88s-.12-.04-.08-.12c0,0,0-.02.04-.02h7.82c.53,0,.92.24,1.18.69,0,.02.02.06.04.08Z"/>
                  <path class="cls-42" d="m321.85,110.06h2.65l.08.08s0,.08-.1.08h-5.19c-.29,0-.58.09-.81.28-.29.24-.45.57-.45.94v1.97q0,.06-.06.06c-.1,0-.08,0-.08-.08v-1.95c0-.61.41-1.16,1.02-1.32.12-.04.24-.04.35-.04h2.56l.02-.02Z"/>
                  <path class="cls-56" d="m318.91,126.22l-.33-.16s-.08-.06-.1-.08c-.35-.25-.56-.67-.55-1.1v-1.45s0-.04.04-.04h.06s.06,0,.06.04v1.4c0,.51.24.88.69,1.14.2.1.39.12.59.12h5.68c.1,0,.12.02.1.12,0,.02,0,.04-.04.04h-5.76c-.14,0-.28-.02-.39-.04l-.04.02Z"/>
                  <path class="cls-12" d="m329.99,130.19s.12.04.18.04h.49c.18,0,.31-.1.39-.26,0-.02,0-.06.04-.06s.08,0,.1.04c.02,0,0,.04,0,.06-.08.22-.29.35-.53.37h-.69c-.22-.09-.37-.3-.39-.53v-2.44c0-.12,0-.1.1-.1h1.49s.06,0,.06.06v2.2q0,.08-.08.08t-.08-.1v-2.08c-.06.04-.1.02-.16.02h-1c-.12,0-.14,0-.14.14v2.16c0,.14.04.26.16.33.02,0,.04.04.06.08v-.02Z"/>
                  <path class="cls-58" d="m335.53,116.63h1.83c.08,0,.12.04.08.12,0,0,0,.02-.04.02h-2.2q-.1,0-.1-.1v-1.47q0-.08.08-.08h2.42c.28,0,.47.16.55.41v.04c.04.2.02.41.02.61,0,.26-.16.47-.37.55q-.06.02-.08-.04t.06-.12c.16-.08.26-.2.26-.37v-.51c0-.06,0-.12-.04-.18,0,0-.02,0-.04-.02-.14-.18-.31-.2-.51-.18h-2.06c-.06,0-.08.02-.08.08v1.12c0,.06.04.08.08.08.06,0,.12,0,.18.04h-.02Z"/>
                  <path class="cls-42" d="m338.17,117.79v.61c0,.26-.14.45-.37.53-.02,0-.06.04-.08,0-.02-.08-.02-.1.02-.12.2-.08.28-.24.28-.43v-.43c0-.08,0-.16-.04-.22-.04,0-.06-.04-.08-.06-.09-.09-.22-.14-.35-.14h-2.12q-.14,0-.14.14v.98q0,.14.14.14s.08,0,.12.04h1.83l.08.08s0,.06-.08.06h-2.22c-.06,0-.08,0-.08-.06v-1.51q0-.06.08-.06h2.38c.29,0,.51.2.57.41s0,.04,0,.04h.08Z"/>
                  <path class="cls-14" d="m326.85,127.69v1.87l-.08.08s-.08,0-.08-.08v-1.87s-.04-.08-.04-.12c0-.06-.02-.08-.08-.08h-1.12c-.06,0-.08.02-.08.08v2.18c0,.14.04.26.16.35.02.02.04.04.06.08.06.04.12.04.2.04h.47c.2,0,.33-.1.41-.28,0-.02,0-.06.04-.06s.08,0,.1.04v.06c-.08.22-.29.37-.53.37h-.67c-.24-.1-.41-.31-.41-.57v-2.46s0-.06.04-.04h1.55s.04,0,.04.06v.35l.02-.02Z"/>
                  <path class="cls-57" d="m338.17,119.97v.63c0,.24-.14.45-.35.53-.04,0-.06.04-.1,0-.02-.08-.02-.1.04-.12.18-.08.28-.22.28-.41v-.45c0-.08,0-.14-.04-.2-.06,0-.08-.06-.1-.08-.06-.07-.16-.12-.26-.12h-2.22c-.1,0-.12,0-.12.12v1.06q0,.1.12.12s.08,0,.12.02h1.81c.08,0,.12.05.12.14,0,.14-.06.04-.08.04h-2.18q-.08,0-.08-.08v-1.49q0-.08.1-.08h2.32c.33,0,.55.16.65.45l-.02-.08Z"/>
                  <path class="cls-12" d="m316.94,115.52v1.18q0,.08-.08.08h-2.22s-.04,0-.04-.04q0-.1.1-.1h1.97c.14,0,.12,0,.12-.12v-.98s-.04-.08-.04-.14-.02-.08-.08-.08h-2.2c-.24,0-.39.16-.41.39v.51c0,.14.06.26.18.33.02,0,.06.04.08.08.02,0,.02.04.02.06v.06s-.06.04-.08,0c-.19-.07-.34-.23-.37-.43v-.57c-.01-.33.24-.6.57-.61.01,0,.03,0,.04,0h2.4s.06,0,.06.06v.33-.02Zm6.45,14.66s.12.04.18.04h.49c.2,0,.31-.1.39-.28,0-.02,0-.06.04-.06s.08,0,.1.04v.06c-.08.22-.29.37-.53.37h-.65c-.26-.08-.44-.32-.43-.59v-2.42q0-.08.08-.08h1.49q.08,0,.08.08v2.18q0,.1-.1.1s-.04,0-.04-.04v-1.91s-.04-.06-.04-.1q0-.1-.12-.1h-1.04q-.12,0-.12.12v2.14c0,.16.04.28.16.37.02.02.04.04.06.08v-.02Z"/>
                  <path class="cls-26" d="m314.29,123.21v.12s-.04.04-.06.02c-.19-.07-.34-.23-.37-.43v-.59c0-.35.26-.59.59-.59h2.38s.08,0,.08.08v1.49q0,.08-.08.08h-2.18c-.1,0-.1-.04-.06-.16.04-.02.06,0,.1,0h1.97c.07,0,.1-.03.1-.1v-1.1q0-.12-.12-.12h-2.2c-.24.02-.37.18-.39.39v.49c0,.14.08.24.18.31.04.02.06.04.08.08v.02Z"/>
                  <path class="cls-42" d="m314.27,118.81s.04.04.04.08c0,.02-.02.04,0,.06,0,.04-.04.02-.06,0-.2-.06-.34-.23-.37-.43v-.59c0-.39.31-.61.61-.59h2.38q.1,0,.1.1v1.45q0,.08-.08.08h-2.24v-.12s.02-.02.04-.02h2.04q.1,0,.1-.1v-1s-.02-.1-.04-.14c0-.04-.02-.06-.08-.08h-2.22c-.12,0-.22.02-.29.12-.08.08-.12.19-.12.29v.45c0,.16.06.28.2.35.02,0,.04.04.06.06l-.06.02Z"/>
                  <path class="cls-58" d="m329.05,127.69v1.85q0,.08-.08.08t-.06-.08v-1.87s-.04-.08-.02-.12c0-.06-.04-.08-.1-.08h-1.1c-.08,0-.1.04-.1.12v2.14c0,.16.04.28.16.37.02,0,.04.04.06.06.06.04.12.04.18.04h.49c.18,0,.31-.1.39-.26,0-.02,0-.06.04-.06s.08,0,.1.04v.06c-.06.16-.18.28-.33.35-.08.02-.14.04-.22.04h-.67c-.22-.1-.37-.31-.39-.55v-2.42c0-.12,0-.1.1-.1h1.49s.06,0,.06.06v.33-.02Z"/>
                  <path class="cls-57" d="m314.29,121.01s.04.04.04.06v.06c0,.06-.04.04-.08.02-.17-.05-.3-.18-.35-.35-.02-.06-.04-.13-.04-.2v-.47c0-.29.18-.51.43-.57h2.56s.08,0,.08.08v1.49s0,.08-.02.1h-2.3s0-.08-.02-.12c0,0,0-.02.04-.02h2.06q.1,0,.1-.1v-1s-.04-.08-.04-.12c0-.08-.04-.1-.1-.1h-2.16c-.29,0-.45.16-.45.45v.35c0,.18.06.33.2.43.02,0,.04.04.06.06v-.06Z"/>
                  <path class="cls-26" d="m335.28,123.23h2.1c.06,0,.1.06.08.12h-2.28s-.02-.04-.02-.06v-1.53s0-.04.04-.04h2.38c.28,0,.53.12.65.45v.61c0,.26-.12.43-.35.55-.02,0-.06.04-.08,0s-.04-.08-.02-.12c0,0,.02-.02.04-.02.2-.08.28-.24.28-.45v-.43c0-.08,0-.14-.04-.2-.02,0-.04-.02-.06-.04-.1-.12-.24-.16-.39-.16h-2.14q-.12,0-.12.12v1.18l-.06.02Z"/>
                  <path class="cls-58" d="m314.29,114.4s.04.04,0,.06v.06s-.04.02-.08,0c-.2-.07-.34-.25-.37-.45v-.67c.04-.26.24-.45.49-.49h2.52q.06,0,.06.06v1.49q0,.08-.08.08h-2.18s-.06,0-.08-.02v-.1s.02-.02.04-.02h2.04c.12,0,.1,0,.1-.1v-1s-.02-.1-.02-.16-.02-.08-.08-.08h-2.24c-.22.02-.37.18-.39.39v.51c0,.14.08.24.18.31.04.02.06.04.08.08l.02.04Zm20.97.02h2.1c.08,0,.1.04.08.12,0,0,0,.02-.04.02h-2.3v-1.59s0-.06.04-.06h2.42c.14,0,.26.02.35.1.12.08.2.2.24.35v.63c0,.26-.14.45-.37.53-.02,0-.06.04-.08,0-.02-.08-.02-.1.04-.12.17-.07.28-.25.28-.43v-.45c0-.08,0-.14-.04-.2h-.02v-.04h-.02s-.04-.06-.06-.08h-.04v-.04h-.06c-.08-.02-.17-.04-.26-.04h-2.06c-.14,0-.16,0-.16.16v1.16l-.04-.02Z"/>
                  <path class="cls-26" d="m321.19,130.19s.14.04.2.04h.45c.2,0,.35-.08.43-.28,0,0,0-.04.04-.04s.08,0,.1.04v.06c-.08.2-.27.35-.49.37h-.71c-.21-.09-.36-.28-.39-.51v-2.46c0-.12,0-.1.1-.1h1.55v2.24c0,.08,0,.1-.1.08t-.04-.04v-2.14s-.1.02-.16.02h-1.04q-.14,0-.14.14v2.08c0,.16.04.31.18.41.02,0,.04.04.04.06l-.02.02Zm0-21.33h.98c.12,0,.1,0,.1-.1v-2.2c0-.08,0-.16-.04-.24-.08-.16-.2-.24-.35-.24h-.55c-.16,0-.29.1-.35.24q-.04.08-.12.06h-.04v-.08c.1-.22.26-.35.51-.35h.55c.24,0,.45.16.51.39v.08s.06.1.06.14v2.34c0,.16-.02.18-.18.18h-.96s-.1,0-.14-.04h-.33s-.06,0-.06-.06v-2.26h.12s.02,0,.02.04v2.04c0,.12,0,.1.1.1h.16l.02-.04Z"/>
                  <path class="cls-51" d="m321.19,109.02h1.14q.1,0,.1-.1v-2.54c.18.1.26.26.26.45v2.34l-.06.06h-1.36s-.08,0-.08-.08v-.18.04Z"/>
                  <path class="cls-27" d="m314.64,121.4h2.54-2.52s.06-.02.1-.02h2.4s.04,0,.04-.04v-1.26s0-.06-.06-.06c-.04,0-.08,0-.12-.04.13,0,.2.06.2.18v1.24s0,.08-.08.08h-2.36c-.06,0-.1,0-.14-.02v-.06Z"/>
                  <path class="cls-15" d="m335.57,121.32h2.32s.08-.02.1.04h-2.34,2.34c.06,0,.12-.02.18,0s-.02,0-.04,0h-.04s-.06,0-.1.02h-2.4s-.06-.06,0-.1l-.02.04Z"/>
                  <path class="cls-28" d="m314.58,116.98c.28.06.55.04.85.04h1.79s0,.04-.02.04h-2.36c-.08,0-.18,0-.26-.06v-.02Z"/>
                  <path class="cls-47" d="m335.57,121.32v.1s-.06-.02-.06-.06v-.18h1.89s-.06.02-.1.02h-1.69c-.1,0-.12.02-.08.14l.04-.02Z"/>
                  <path class="cls-11" d="m314.4,119.06s.06.04.08.08c-.04,0-.06-.04-.08-.08Z"/>
                  <path class="cls-9" d="m337.99,121.42h.1s-.06,0-.1,0Z"/>
                  <path class="cls-8" d="m338.27,117.82s-.04,0-.06-.04c.02,0,.04,0,.06.04Z"/>
                  <path class="cls-56" d="m334.06,125.25c-.08.28-.25.53-.49.71-.26.2-.53.28-.85.28h-7.21q-.08,0-.08-.08t.08-.08h7.19c.55.03,1.06-.32,1.22-.85l.04-.08c.06-.12.04-.26.04-.37v-3.91s.02-.06.08-.06c.04,0,.06.02.06.06v3.83c0,.18,0,.35-.04.53l-.04.02Z"/>
                  <path class="cls-54" d="m333.96,115.9v-4.66s0-.06.04-.06c.08,0,.1,0,.1.08v9.2q0,.1-.08.1t-.06-.06v-4.6Z"/>
                  <path class="cls-43" d="m334.06,125.25s0-.18.02-.26v-4.11s0-.04-.04-.04-.04,0-.04.04v3.87c0,.1-.02.22-.02.31,0,.02,0,.06-.04.08.04-.26.02-.53.02-.79v-3.46c0-.08.04-.12.12-.08,0,0,.02,0,.02.04v3.97c0,.14,0,.26-.04.39v.04-.02Z"/>
                  <path class="cls-1" d="m321.19,130.19c-.14-.06-.2-.16-.24-.29v-2.42s0-.04.04-.04h1.3v.16c0,.08,0,.1-.08.1h-.94s-.06,0-.06.06v2.42l-.02.02Z"/>
                  <path class="cls-34" d="m325.59,130.19c-.15-.05-.24-.2-.24-.35v-2.36s0-.04.04-.04h1.22c.1,0,.08,0,.08.1v.16h-1.02q-.08,0-.08.08v2.42Z"/>
                  <path class="cls-5" d="m335.28,123.23v-1.26q0-.08.08-.08h2.26c.18,0,.31.08.39.24-.04.02-.08,0-.12,0h-2.22c-.08,0-.12.04-.12.12v.9s0,.06-.06.06h-.2l-.02.02Zm.26-6.6h-.24s-.04,0-.04-.04v-1.26s0-.04.04-.04h2.28c.18,0,.31.08.39.24h-2.38q-.06,0-.08.08v1.02h.02Z"/>
                  <path class="cls-1" d="m335.53,118.83h-.22q-.08,0-.08-.08v-1.22s0-.06.06-.06h2.28c.18,0,.29.08.39.24-.04.02-.08,0-.12,0h-2.22c-.08,0-.12.04-.12.12v.98l.02.02Z"/>
                  <path class="cls-34" d="m329.99,130.19c-.13-.05-.22-.16-.24-.29v-2.4s0-.04.04-.04h1.3v.14q0,.12-.1.12h-.92s-.06,0-.06.06v2.42h-.02Z"/>
                  <path class="cls-38" d="m327.79,130.19c-.16-.06-.24-.2-.26-.35v-2.32q0-.06.06-.06h1.16c.12,0,.1,0,.1.12v.14h-1.02q-.06,0-.08.06v2.42h.04Z"/>
                  <path class="cls-22" d="m323.39,130.19c-.16-.06-.24-.2-.26-.35v-2.28c0-.12,0-.1.1-.1h1.18q.08,0,.08.08v.18h-1.02s-.06,0-.06.06v2.44l-.02-.02Zm11.87-15.76v-1.3s0-.04.04-.04h2.28c.08,0,.16,0,.22.06,0,0,.02,0,.04.02s0,0,.02,0,.06.06.1.1,0,0,0,.02,0,.04-.02.04h-2.3q-.12,0-.12.12v.96h-.26v.02Z"/>
                  <path class="cls-35" d="m335.53,114.4v-1.02c0-.06,0-.08.06-.08h2.28s.08.02.1-.04c0,0,.02.02.02.04-.04.02-.08,0-.12,0h-2.22q-.12,0-.12.12v.98Z"/>
                  <path class="cls-22" d="m314.29,114.4c-.16-.04-.28-.18-.29-.37v-.55c0-.24.2-.41.43-.41h2.3s.04,0,.04.04v.22h-2c-.28,0-.49.22-.49.49v.57l.02.02Z"/>
                  <path class="cls-1" d="m314.27,118.81c-.18-.08-.28-.22-.28-.39v-.51c0-.26.2-.41.43-.41h2.26q.08,0,.08.08v.18h-2c-.24,0-.41.16-.47.37v.71l-.02-.02Z"/>
                  <path class="cls-5" d="m314.29,116.61c-.17-.05-.28-.2-.29-.37v-.53c0-.24.2-.41.43-.41h2.26q.08,0,.08.08v.18h-2.06c-.26.04-.43.24-.43.47v.59h.02Zm0,6.6c-.16-.04-.24-.16-.28-.29v-.57c0-.28.18-.45.47-.45h2.26s.06,0,.06.06v.2s-.06,0-.1,0h-1.87c-.08,0-.16,0-.24.04-.16.08-.26.22-.26.39v.61l-.06.02Z"/>
                  <path class="cls-30" d="m314.56,122.19s.1-.04.14-.06h2.06v1.02q0,.08-.08.08h-2.08s.08-.02.1-.02h1.91q.14,0,.14-.14v-.83q0-.1-.1-.1h-1.89c-.08,0-.16.04-.24.04h.04Z"/>
                  <path class="cls-52" d="m335.53,121.03h-.2q-.08,0-.08-.08v-1.18q0-.08.08-.08h2.26c.18,0,.31.08.39.24-.04.02-.08,0-.12,0h-2.22c-.14,0-.12,0-.12.14v.98-.02Zm-21.25-.02c-.18-.06-.28-.2-.28-.39v-.51c0-.26.2-.43.43-.43h2.26q.08,0,.08.08v.18h-1.99c-.29,0-.53.24-.51.53v.55Z"/>
                  <path class="cls-24" d="m314.62,121.19h2.3s.02.02,0,.04h-.04s-.08,0-.12,0h-2.16l.02-.04Z"/>
                  <path class="cls-22" d="m324.47,106.37c-.04-.16-.18-.28-.37-.29h-.55c-.24,0-.41.2-.41.43v2.3s0,.04.04.04h.22v-2c0-.28.22-.49.49-.49h.57l.02.02Z"/>
                  <path class="cls-9" d="m323.41,106.8c0-.24.22-.47.45-.47h.59c.06,0,.06.06.06.1v2.26c0,.06,0,.1-.02.16h-.02s-.04,0-.06.02h-.08c0-.06-.06-.06-.1-.06h-.71c-.12,0-.14,0-.14-.14v-1.87h.02Z"/>
                  <path class="cls-26" d="m324.47,108.86h.02v-2.34c0-.06,0-.12-.04-.18-.06-.16-.2-.24-.35-.26h-.55c-.18,0-.29.1-.37.26v.06s-.12,0-.16-.04c0-.08.06-.16.12-.24.12-.14.26-.2.43-.2h.53c.26,0,.47.16.55.41v.06s.06.08.06.14v2.34c0,.14-.02.18-.18.18h-.96s-.1,0-.14-.04h-.29c-.14,0-.12,0-.12-.12v-2.2h.12v2.1q0,.1.08.1h.18s.08-.04.12-.04h.71s.08,0,.12.04h.12l.02-.04Z"/>
                  <path class="cls-9" d="m323.39,109.02h1.14q.1,0,.1-.1v-2.5s.1.04.12.1c.08.1.14.22.14.33v2.34q0,.08-.1.08h-1.32q-.08,0-.08-.08v-.18h0Z"/>
                  <path class="cls-46" d="m324.35,108.86h-.96v-2.04s0-.04.04-.06c.02,0,0,.04,0,.04-.04.04-.04.1-.04.14v1.79q0,.06.08.06h.88s0,.06-.02.1l.02-.02Zm.12,0h-.04s0-.06.04-.1v.1Z"/>
                  <path class="cls-35" d="m337.95,113.24s-.08-.06-.1-.1c.04.02.08.06.1.1Zm-.12-.1s-.02,0-.04-.02c0,0,.02,0,.04.02Zm.14.12v-.02.02Zm-.12-.1h-.02.02Z"/>
                  <path class="cls-22" d="m326.67,106.37c-.04-.16-.18-.28-.37-.29h-.55c-.24,0-.41.2-.41.43v2.3s0,.04.04.04h.22v-2c0-.28.22-.49.49-.49h.57l.02.02Z"/>
                  <path class="cls-9" d="m325.61,106.8c0-.24.22-.47.45-.47h.59c.06,0,.06.06.06.1v2.26c0,.06,0,.1-.02.16h-.02s-.04,0-.06.02h-.08c0-.06-.06-.06-.1-.06h-.71c-.12,0-.14,0-.14-.14v-1.87h.02Z"/>
                  <path class="cls-26" d="m326.67,108.86h.02v-2.34c0-.06,0-.12-.04-.18-.06-.16-.2-.24-.35-.26h-.55c-.18,0-.29.1-.37.26v.06s-.12,0-.16-.04c0-.08.06-.16.12-.24.12-.14.26-.2.43-.2h.53c.26,0,.47.16.55.41v.06s.06.08.06.14v2.34c0,.14-.02.18-.18.18h-.96s-.1,0-.14-.04h-.29c-.14,0-.12,0-.12-.12v-2.2h.12v2.1q0,.1.08.1h.18s.08-.04.12-.04h.71s.08,0,.12.04h.12l.02-.04Z"/>
                  <path class="cls-9" d="m325.61,109.02h1.14q.1,0,.1-.1v-2.5s.1.04.12.1c.08.1.14.22.14.33v2.34q0,.08-.1.08h-1.32q-.08,0-.08-.08v-.18h0Z"/>
                  <path class="cls-46" d="m326.55,108.86h-.96v-2.04s0-.04.04-.06c.02,0,0,.04,0,.04-.04.04-.04.1-.04.14v1.79q0,.06.08.06h.88s0,.06-.02.1l.02-.02Zm.12,0h-.04s0-.06.04-.1v.1Z"/>
                  <path class="cls-22" d="m328.87,106.37c-.04-.16-.18-.28-.37-.29h-.55c-.24,0-.41.2-.41.43v2.3s0,.04.04.04h.22v-2c0-.28.22-.49.49-.49h.57l.02.02Z"/>
                  <path class="cls-9" d="m327.81,106.8c0-.24.22-.47.45-.47h.59c.06,0,.06.06.06.1v2.26c0,.06,0,.1-.02.16h-.02s-.04,0-.06.02h-.08c0-.06-.06-.06-.1-.06h-.71c-.12,0-.14,0-.14-.14v-1.87h.02Z"/>
                  <path class="cls-26" d="m328.87,108.86h.02v-2.34c0-.06,0-.12-.04-.18-.06-.16-.2-.24-.35-.26h-.55c-.18,0-.29.1-.37.26v.06s-.12,0-.16-.04c0-.08.06-.16.12-.24.12-.14.26-.2.43-.2h.53c.26,0,.47.16.55.41v.06s.06.08.06.14v2.34c0,.14-.02.18-.18.18h-.96s-.1,0-.14-.04h-.29c-.14,0-.12,0-.12-.12v-2.2h.12v2.1q0,.1.08.1h.18s.08-.04.12-.04h.71s.08,0,.12.04h.12l.02-.04Z"/>
                  <path class="cls-9" d="m327.81,109.02h1.14q.1,0,.1-.1v-2.5s.1.04.12.1c.08.1.14.22.14.33v2.34q0,.08-.1.08h-1.32q-.08,0-.08-.08v-.18h0Z"/>
                  <path class="cls-46" d="m328.75,108.86h-.96v-2.04s0-.04.04-.06c.02,0,0,.04,0,.04-.04.04-.04.1-.04.14v1.79q0,.06.08.06h.88s0,.06-.02.1l.02-.02Zm.12,0h-.04s0-.06.04-.1v.1Z"/>
                  <path class="cls-22" d="m331.09,106.37c-.04-.16-.18-.28-.37-.29h-.55c-.24,0-.41.2-.41.43v2.3s0,.04.04.04h.22v-2c0-.28.22-.49.49-.49h.57l.02.02Z"/>
                  <path class="cls-9" d="m330.03,106.8c0-.24.22-.47.45-.47h.59c.06,0,.06.06.06.1v2.26c0,.06,0,.1-.02.16h-.02s-.04,0-.06.02h-.08c0-.06-.06-.06-.1-.06h-.71c-.12,0-.14,0-.14-.14v-1.87h.02Z"/>
                  <path class="cls-26" d="m331.09,108.86h.02v-2.34c0-.06,0-.12-.04-.18-.06-.16-.2-.24-.35-.26h-.55c-.18,0-.29.1-.37.26v.06s-.12,0-.16-.04c0-.08.06-.16.12-.24.12-.14.26-.2.43-.2h.53c.26,0,.47.16.55.41v.06s.06.08.06.14v2.34c0,.14-.02.18-.18.18h-.96s-.1,0-.14-.04h-.29c-.14,0-.12,0-.12-.12v-2.2h.12v2.1q0,.1.08.1h.18s.08-.04.12-.04h.71s.08,0,.12.04h.12l.02-.04Z"/>
                  <path class="cls-9" d="m330.03,109.02h1.14q.1,0,.1-.1v-2.5s.1.04.12.1c.08.1.14.22.14.33v2.34q0,.08-.1.08h-1.32q-.08,0-.08-.08v-.18h0Z"/>
                  <path class="cls-46" d="m330.97,108.86h-.96v-2.04s0-.04.04-.06c.02,0,0,.04,0,.04-.04.04-.04.1-.04.14v1.79q0,.06.08.06h.88s0,.06-.02.1l.02-.02Zm.12,0h-.04s0-.06.04-.1v.1Z"/>
                </g>
              </g>
            </g>
          </g>
          <g>
            <line class="cls-66" x1="34.66" y1="618.79" x2="356.46" y2="618.79"/>
            <line class="cls-66" x1="34.66" y1="488.21" x2="356.46" y2="488.21"/>
            <line class="cls-66" x1="195.56" y1="553.57" x2="356.46" y2="553.57"/>
            <line class="cls-66" x1="195.56" y1="488.21" x2="195.56" y2="618.94"/>
          </g>
          <g>
            <path class="cls-55" d="m174.62,672.83H52.61c-1.39,0-2.51-1.13-2.51-2.51s1.13-2.51,2.51-2.51h122.01c1.39,0,2.51,1.13,2.51,2.51s-1.13,2.51-2.51,2.51Z"/>
            <path class="cls-55" d="m324.88,706.26H52.62c-1.39,0-2.51-1.13-2.51-2.51s1.13-2.51,2.51-2.51h272.26c1.39,0,2.51,1.13,2.51,2.51s-1.13,2.51-2.51,2.51Z"/>
            <path class="cls-55" d="m324.88,690.17H52.62c-1.39,0-2.51-1.13-2.51-2.51s1.13-2.51,2.51-2.51h272.26c1.39,0,2.51,1.13,2.51,2.51s-1.13,2.51-2.51,2.51Z"/>
          </g>
        </g>
      </g>
      <g>
        <path class="cls-17" d="m329.8,4.76H63.47c-29.03,0-52.56,23.53-52.56,52.56v670.36c0,29.03,23.53,52.56,52.56,52.56h266.33c29.03,0,52.56-23.53,52.56-52.56V57.32c0-29.03-23.53-52.56-52.56-52.56Zm47.46,721.08c0,27.23-22.07,49.3-49.3,49.3H65.31c-27.23,0-49.3-22.07-49.3-49.3V59.16c0-27.23,22.07-49.3,49.3-49.3h262.65c27.23,0,49.3,22.07,49.3,49.3v666.68Z"/>
        <g class="cls-60">
          <path class="cls-34" d="m24.94,22.89c10.7-9.56,24.54-17,40.8-16.79l252.56.49c32.86,1.98,61.78,19.97,62.9,58.19,0,4.22,2.27-32.03-21.21-47.92-11.15-8-27.63-11.5-37.54-11.69-16.21-.31-230.2-.63-256.41,0-21.96.53-32.28,9.4-41.09,17.71Z"/>
        </g>
        <g>
          <path class="cls-4" d="m327.96,9.86H65.31c-27.23,0-49.3,22.07-49.3,49.3v666.68c0,27.23,22.07,49.3,49.3,49.3h262.65c27.23,0,49.3-22.07,49.3-49.3V59.16c0-27.23-22.07-49.3-49.3-49.3Zm46.75,714.49c0,26.64-21.6,48.24-48.24,48.24H66.8c-26.64,0-48.24-21.6-48.24-48.24V60.65c0-26.64,21.6-48.24,48.24-48.24h259.67c26.64,0,48.24,21.6,48.24,48.24v663.71Z"/>
          <path class="cls-25" d="m327.96,775.39H65.31c-27.32,0-49.55-22.23-49.55-49.55V59.16c0-27.32,22.23-49.55,49.55-49.55h262.65c27.32,0,49.55,22.23,49.55,49.55v666.68c0,27.32-22.23,49.55-49.55,49.55ZM65.31,10.11c-27.05,0-49.05,22-49.05,49.05v666.68c0,27.05,22,49.05,49.05,49.05h262.65c27.04,0,49.05-22,49.05-49.05V59.16c0-27.05-22-49.05-49.05-49.05H65.31Zm261.16,762.73H66.8c-26.74,0-48.49-21.75-48.49-48.49V60.65c0-26.74,21.75-48.49,48.49-48.49h259.67c26.74,0,48.49,21.75,48.49,48.49v663.71c0,26.74-21.75,48.49-48.49,48.49ZM66.8,12.66c-26.46,0-47.99,21.53-47.99,47.99v663.71c0,26.46,21.53,47.99,47.99,47.99h259.67c26.46,0,47.99-21.53,47.99-47.99V60.65c0-26.46-21.53-47.99-47.99-47.99H66.8Z"/>
        </g>
        <g class="cls-61">
          <path class="cls-34" d="m24.94,762.11c10.7,9.56,24.54,17,40.8,16.79l252.56-.49c32.86-1.98,61.78-19.97,62.9-58.19,0-4.22,2.27,32.03-21.21,47.92-11.15,8-27.63,11.5-37.54,11.69-16.21.31-230.2.63-256.41,0-21.96-.53-32.28-9.4-41.09-17.71Z"/>
        </g>
        <g>
          <rect class="cls-50" x="382.36" y="166.98" width="1.19" height="82.96"/>
          <path class="cls-21" d="m383.55,249.94v-82.95l.59.72c-.3,5.94-.28,75.58,0,81.5l-.59.72Z"/>
        </g>
        <g>
          <rect class="cls-10" x="8.45" y="166.98" width="1.19" height="55.76"/>
          <path class="cls-40" d="m8.45,222.74v-55.75l-.59.72c.3,5.94.28,48.38,0,54.3l.59.72Z"/>
          <rect class="cls-48" x="9.64" y="167" width="1.27" height="55.76"/>
        </g>
        <g>
          <rect class="cls-44" x="8.45" y="236.89" width="1.19" height="55.76"/>
          <path class="cls-49" d="m8.45,292.66v-55.75l-.59.72c.3,5.94.28,48.38,0,54.3l.59.72Z"/>
          <rect class="cls-20" x="9.64" y="236.91" width="1.27" height="55.76"/>
        </g>
        <g>
          <rect class="cls-2" x="8.45" y="100.96" width="1.19" height="30.26"/>
          <path class="cls-31" d="m8.45,131.23v-30.25l-.59.72c.3,5.94.28,22.88,0,28.8l.59.72Z"/>
          <rect class="cls-37" x="9.64" y="100.98" width="1.27" height="30.26"/>
        </g>
        <path class="cls-53" d="m215.02,778.85h-36.77c-.75,0-1.4.09-1.6.23l-1.62.7c-.3.2.5.4,1.6.4h40.01c1.11,0,1.91-.2,1.6-.4l-1.62-.7c-.2-.14-.86-.23-1.6-.23Z"/>
        <path class="cls-16" d="m229.45,47.76h-66.9c-7.53,0-13.63-6.1-13.63-13.63h0c0-7.53,6.1-13.63,13.63-13.63h66.9c7.53,0,13.63,6.1,13.63,13.63h0c0,7.53-6.1,13.63-13.63,13.63Z"/>
        <g>
          <circle class="cls-18" cx="225.68" cy="34.13" r="5.95" transform="translate(191.17 259.75) rotate(-89.9)"/>
          <image width="12" height="12" transform="translate(220 28.5)" xlink:href="data:image/png;base64,iVBORw0KGgoAAAANSUhEUgAAAAwAAAAMCAYAAABWdVznAAAACXBIWXMAAAsSAAALEgHS3X78AAABwElEQVQokWJkgAJZefn/v37+ZGBmYWFgZmZmYGNlY2BlYwXTly5egKhjYGAAAAAA//9iAhFyCgpgxQyMcHEGRiYom5GBwcTM/D+YzcDAAAAAAP//YhKXkPj/88cPCO8/RJyRgZHh79+/YPavX78Yfv36CdHEwMAAAAAA//9iATmBkRGiAKQQxGZmYWZgAYkzMIKdxcLCCjGMgYEBAAAA//9iBLn9379/EMVMjAycnJwMrKysDP///Wfg5uZmYGNjAysEGfjn718GAAAAAP//AvuBiYkJrBgE//z+A3YUGzs7WAMnJxcDGxs7xMkMDAwAAAAA//9i4ebiZvj1+xfcCUzMTAxcXFwM7GxsYINA4v///wfTf/7+ZQAAAAD//2IBmczOjjABZBpIMUgByHRmJiawht+/mRgYGBgYAAAAAP//YmFhhpgAwiAPgzwH8h7IdLC7//xh+PHjO8O3798Zzpw6yQgAAAD//2K6fOkiIwcnJwMHBwc4wkAmg3QwQk1+//4dWDNIMQMDAwMAAAD//4LHFCic//75A9cECrl/0KCEKWZgYGAAAAAA//9CRC2SRhgbWSEYMDAwAAAAAP//AwA5vXbK/EMAigAAAABJRU5ErkJggg=="/>
          <circle class="cls-33" cx="225.68" cy="34.13" r="3.4"/>
          <g id="Camera">
            <path class="cls-3" d="m228.66,34.13c0,1.64-1.33,2.97-2.98,2.97s-2.97-1.33-2.97-2.97,1.32-2.98,2.97-2.98,2.98,1.33,2.98,2.98Z"/>
            <path class="cls-19" d="m228.66,34.13c0,1.64-1.33,2.97-2.98,2.97s-2.97-1.33-2.97-2.97,1.32-2.98,2.97-2.98,2.98,1.33,2.98,2.98Z"/>
          </g>
          <path class="cls-45" d="m228.38,35.68c0-.59-.48-1.06-1.06-1.06s-1.06.48-1.06,1.06.48,1.06,1.06,1.06,1.06-.48,1.06-1.06Z"/>
        </g>
      </g>
      <rect class="cls-36" x="223" y="78.5" width="133" height="96" rx="7.5" ry="7.5"/>
    </g>
  </g>
</svg>